{
  "db": {
    "name": "db",
    "connector": "memory"
  },
  "mlabds": {
    "host": "ds041536.mlab.com",
    "port": 41536,
    "url": "mongodb://rizwan:root@ds041536.mlab.com:41536/mocktest",
    "database": "mocktest",
    "password": "root",
    "name": "mlabds",
    "user": "rizwan",
    "connector": "mongodb"
  }
}
